^D:\DEV\ANN_1.1.2\MS_WIN32\ANN2FIG\RELEASE\ANN2FIG.EXE.INTERMEDIATE.MANIFEST
C:\WINDOWS\MICROSOFT.NET\FRAMEWORK\V2.0.50727\MSCORWKS.DLL
C:\WINDOWS\MICROSOFT.NET\FRAMEWORK\V4.0.30319\CLR.DLL
C:\PROGRAM FILES (X86)\MICROSOFT SDKS\WINDOWS\V7.0A\BIN\MT.EXE.CONFIG
D:\DEV\ANN_1.1.2\MS_WIN32\BIN\ANN2FIG.EXE
