^D:\DEV\ANN_1.1.2\SRC\ANN.CPP|D:\DEV\ANN_1.1.2\SRC\BD_PR_SEARCH.CPP|D:\DEV\ANN_1.1.2\SRC\BD_SEARCH.CPP|D:\DEV\ANN_1.1.2\SRC\BD_TREE.CPP|D:\DEV\ANN_1.1.2\SRC\BRUTE.CPP|D:\DEV\ANN_1.1.2\SRC\KD_PR_SEARCH.CPP|D:\DEV\ANN_1.1.2\SRC\KD_SEARCH.CPP|D:\DEV\ANN_1.1.2\SRC\KD_SPLIT.CPP|D:\DEV\ANN_1.1.2\SRC\KD_TREE.CPP|D:\DEV\ANN_1.1.2\SRC\KD_UTIL.CPP|D:\DEV\ANN_1.1.2\SRC\PERF.CPP
D:\DEV\ANN_1.1.2\MS_WIN32\DLL\RELEASE\PERF.OBJ
D:\DEV\ANN_1.1.2\MS_WIN32\DLL\RELEASE\KD_UTIL.OBJ
D:\DEV\ANN_1.1.2\MS_WIN32\DLL\RELEASE\KD_TREE.OBJ
D:\DEV\ANN_1.1.2\MS_WIN32\DLL\RELEASE\KD_SPLIT.OBJ
D:\DEV\ANN_1.1.2\MS_WIN32\DLL\RELEASE\KD_SEARCH.OBJ
D:\DEV\ANN_1.1.2\MS_WIN32\DLL\RELEASE\KD_PR_SEARCH.OBJ
D:\DEV\ANN_1.1.2\MS_WIN32\DLL\RELEASE\BRUTE.OBJ
D:\DEV\ANN_1.1.2\MS_WIN32\DLL\RELEASE\BD_TREE.OBJ
D:\DEV\ANN_1.1.2\MS_WIN32\DLL\RELEASE\BD_SEARCH.OBJ
D:\DEV\ANN_1.1.2\MS_WIN32\DLL\RELEASE\BD_PR_SEARCH.OBJ
D:\DEV\ANN_1.1.2\MS_WIN32\DLL\RELEASE\ANN.OBJ
^D:\DEV\ANN_1.1.2\SRC\ANN.CPP
D:\DEV\ANN_1.1.2\MS_WIN32\DLL\RELEASE\VC100.PDB
^D:\DEV\ANN_1.1.2\SRC\BD_PR_SEARCH.CPP
D:\DEV\ANN_1.1.2\MS_WIN32\DLL\RELEASE\VC100.PDB
^D:\DEV\ANN_1.1.2\SRC\BD_SEARCH.CPP
D:\DEV\ANN_1.1.2\MS_WIN32\DLL\RELEASE\VC100.PDB
^D:\DEV\ANN_1.1.2\SRC\BD_TREE.CPP
D:\DEV\ANN_1.1.2\MS_WIN32\DLL\RELEASE\VC100.PDB
^D:\DEV\ANN_1.1.2\SRC\BRUTE.CPP
D:\DEV\ANN_1.1.2\MS_WIN32\DLL\RELEASE\VC100.PDB
^D:\DEV\ANN_1.1.2\SRC\KD_PR_SEARCH.CPP
D:\DEV\ANN_1.1.2\MS_WIN32\DLL\RELEASE\VC100.PDB
^D:\DEV\ANN_1.1.2\SRC\KD_SEARCH.CPP
D:\DEV\ANN_1.1.2\MS_WIN32\DLL\RELEASE\VC100.PDB
^D:\DEV\ANN_1.1.2\SRC\KD_SPLIT.CPP
D:\DEV\ANN_1.1.2\MS_WIN32\DLL\RELEASE\VC100.PDB
^D:\DEV\ANN_1.1.2\SRC\KD_TREE.CPP
D:\DEV\ANN_1.1.2\MS_WIN32\DLL\RELEASE\VC100.PDB
^D:\DEV\ANN_1.1.2\SRC\KD_UTIL.CPP
D:\DEV\ANN_1.1.2\MS_WIN32\DLL\RELEASE\VC100.PDB
^D:\DEV\ANN_1.1.2\SRC\PERF.CPP
D:\DEV\ANN_1.1.2\MS_WIN32\DLL\RELEASE\VC100.PDB
^D:\DEV\ANN_1.1.2\SRC\BD_FIX_RAD_SEARCH.CPP|D:\DEV\ANN_1.1.2\SRC\KD_DUMP.CPP|D:\DEV\ANN_1.1.2\SRC\KD_FIX_RAD_SEARCH.CPP
D:\DEV\ANN_1.1.2\MS_WIN32\DLL\RELEASE\KD_FIX_RAD_SEARCH.OBJ
D:\DEV\ANN_1.1.2\MS_WIN32\DLL\RELEASE\KD_DUMP.OBJ
D:\DEV\ANN_1.1.2\MS_WIN32\DLL\RELEASE\BD_FIX_RAD_SEARCH.OBJ
^D:\DEV\ANN_1.1.2\SRC\BD_FIX_RAD_SEARCH.CPP
D:\DEV\ANN_1.1.2\MS_WIN32\DLL\RELEASE\VC100.PDB
^D:\DEV\ANN_1.1.2\SRC\KD_DUMP.CPP
D:\DEV\ANN_1.1.2\MS_WIN32\DLL\RELEASE\VC100.PDB
^D:\DEV\ANN_1.1.2\SRC\KD_FIX_RAD_SEARCH.CPP
D:\DEV\ANN_1.1.2\MS_WIN32\DLL\RELEASE\VC100.PDB
