^D:\DEV\ANN_1.1.2\MS_WIN32\DLL\RELEASE\ANN.OBJ|D:\DEV\ANN_1.1.2\MS_WIN32\DLL\RELEASE\BD_FIX_RAD_SEARCH.OBJ|D:\DEV\ANN_1.1.2\MS_WIN32\DLL\RELEASE\BD_PR_SEARCH.OBJ|D:\DEV\ANN_1.1.2\MS_WIN32\DLL\RELEASE\BD_SEARCH.OBJ|D:\DEV\ANN_1.1.2\MS_WIN32\DLL\RELEASE\BD_TREE.OBJ|D:\DEV\ANN_1.1.2\MS_WIN32\DLL\RELEASE\BRUTE.OBJ|D:\DEV\ANN_1.1.2\MS_WIN32\DLL\RELEASE\KD_DUMP.OBJ|D:\DEV\ANN_1.1.2\MS_WIN32\DLL\RELEASE\KD_FIX_RAD_SEARCH.OBJ|D:\DEV\ANN_1.1.2\MS_WIN32\DLL\RELEASE\KD_PR_SEARCH.OBJ|D:\DEV\ANN_1.1.2\MS_WIN32\DLL\RELEASE\KD_SEARCH.OBJ|D:\DEV\ANN_1.1.2\MS_WIN32\DLL\RELEASE\KD_SPLIT.OBJ|D:\DEV\ANN_1.1.2\MS_WIN32\DLL\RELEASE\KD_TREE.OBJ|D:\DEV\ANN_1.1.2\MS_WIN32\DLL\RELEASE\KD_UTIL.OBJ|D:\DEV\ANN_1.1.2\MS_WIN32\DLL\RELEASE\PERF.OBJ
/ERRORREPORT:PROMPT /OUT:".\Release\dll.dll" /INCREMENTAL:NO /NOLOGO kernel32.lib user32.lib gdi32.lib winspool.lib comdlg32.lib advapi32.lib shell32.lib ole32.lib oleaut32.lib uuid.lib odbc32.lib odbccp32.lib /MANIFEST /ManifestFile:".\Release\dll.dll.intermediate.manifest" /MANIFESTUAC:"level='asInvoker' uiAccess='false'" /PDB:".\Release\ANN.pdb" /TLBID:1 /DYNAMICBASE:NO /IMPLIB:".\Release\ANN.lib" /MACHINE:X64 /DLL .\Release/ANN.obj
.\Release/bd_fix_rad_search.obj
.\Release/bd_pr_search.obj
.\Release/bd_search.obj
.\Release/bd_tree.obj
.\Release/brute.obj
.\Release/kd_dump.obj
.\Release/kd_fix_rad_search.obj
.\Release/kd_pr_search.obj
.\Release/kd_search.obj
.\Release/kd_split.obj
.\Release/kd_tree.obj
.\Release/kd_util.obj
.\Release/perf.obj
