^D:\DEV\ANN_1.1.2\MS_WIN32\DLL\RELEASE\ANN.OBJ|D:\DEV\ANN_1.1.2\MS_WIN32\DLL\RELEASE\BD_FIX_RAD_SEARCH.OBJ|D:\DEV\ANN_1.1.2\MS_WIN32\DLL\RELEASE\BD_PR_SEARCH.OBJ|D:\DEV\ANN_1.1.2\MS_WIN32\DLL\RELEASE\BD_SEARCH.OBJ|D:\DEV\ANN_1.1.2\MS_WIN32\DLL\RELEASE\BD_TREE.OBJ|D:\DEV\ANN_1.1.2\MS_WIN32\DLL\RELEASE\BRUTE.OBJ|D:\DEV\ANN_1.1.2\MS_WIN32\DLL\RELEASE\KD_DUMP.OBJ|D:\DEV\ANN_1.1.2\MS_WIN32\DLL\RELEASE\KD_FIX_RAD_SEARCH.OBJ|D:\DEV\ANN_1.1.2\MS_WIN32\DLL\RELEASE\KD_PR_SEARCH.OBJ|D:\DEV\ANN_1.1.2\MS_WIN32\DLL\RELEASE\KD_SEARCH.OBJ|D:\DEV\ANN_1.1.2\MS_WIN32\DLL\RELEASE\KD_SPLIT.OBJ|D:\DEV\ANN_1.1.2\MS_WIN32\DLL\RELEASE\KD_TREE.OBJ|D:\DEV\ANN_1.1.2\MS_WIN32\DLL\RELEASE\KD_UTIL.OBJ|D:\DEV\ANN_1.1.2\MS_WIN32\DLL\RELEASE\PERF.OBJ
C:\WINDOWS\SYSTEM32\C_1252.NLS
C:\WINDOWS\GLOBALIZATION\SORTING\SORTDEFAULT.NLS
C:\PROGRAM FILES (X86)\MICROSOFT SDKS\WINDOWS\V7.0A\LIB\X64\KERNEL32.LIB
C:\PROGRAM FILES (X86)\MICROSOFT SDKS\WINDOWS\V7.0A\LIB\X64\USER32.LIB
C:\PROGRAM FILES (X86)\MICROSOFT SDKS\WINDOWS\V7.0A\LIB\X64\GDI32.LIB
C:\PROGRAM FILES (X86)\MICROSOFT SDKS\WINDOWS\V7.0A\LIB\X64\WINSPOOL.LIB
C:\PROGRAM FILES (X86)\MICROSOFT SDKS\WINDOWS\V7.0A\LIB\X64\COMDLG32.LIB
C:\PROGRAM FILES (X86)\MICROSOFT SDKS\WINDOWS\V7.0A\LIB\X64\ADVAPI32.LIB
C:\PROGRAM FILES (X86)\MICROSOFT SDKS\WINDOWS\V7.0A\LIB\X64\SHELL32.LIB
C:\PROGRAM FILES (X86)\MICROSOFT SDKS\WINDOWS\V7.0A\LIB\X64\OLE32.LIB
C:\PROGRAM FILES (X86)\MICROSOFT SDKS\WINDOWS\V7.0A\LIB\X64\OLEAUT32.LIB
C:\PROGRAM FILES (X86)\MICROSOFT SDKS\WINDOWS\V7.0A\LIB\X64\UUID.LIB
C:\PROGRAM FILES (X86)\MICROSOFT SDKS\WINDOWS\V7.0A\LIB\X64\ODBC32.LIB
C:\PROGRAM FILES (X86)\MICROSOFT SDKS\WINDOWS\V7.0A\LIB\X64\ODBCCP32.LIB
D:\DEV\ANN_1.1.2\MS_WIN32\DLL\RELEASE\ANN.OBJ
D:\DEV\ANN_1.1.2\MS_WIN32\DLL\RELEASE\BD_FIX_RAD_SEARCH.OBJ
D:\DEV\ANN_1.1.2\MS_WIN32\DLL\RELEASE\BD_PR_SEARCH.OBJ
D:\DEV\ANN_1.1.2\MS_WIN32\DLL\RELEASE\BD_SEARCH.OBJ
D:\DEV\ANN_1.1.2\MS_WIN32\DLL\RELEASE\BD_TREE.OBJ
D:\DEV\ANN_1.1.2\MS_WIN32\DLL\RELEASE\BRUTE.OBJ
D:\DEV\ANN_1.1.2\MS_WIN32\DLL\RELEASE\KD_DUMP.OBJ
D:\DEV\ANN_1.1.2\MS_WIN32\DLL\RELEASE\KD_FIX_RAD_SEARCH.OBJ
D:\DEV\ANN_1.1.2\MS_WIN32\DLL\RELEASE\KD_PR_SEARCH.OBJ
D:\DEV\ANN_1.1.2\MS_WIN32\DLL\RELEASE\KD_SEARCH.OBJ
D:\DEV\ANN_1.1.2\MS_WIN32\DLL\RELEASE\KD_SPLIT.OBJ
D:\DEV\ANN_1.1.2\MS_WIN32\DLL\RELEASE\KD_TREE.OBJ
D:\DEV\ANN_1.1.2\MS_WIN32\DLL\RELEASE\KD_UTIL.OBJ
D:\DEV\ANN_1.1.2\MS_WIN32\DLL\RELEASE\PERF.OBJ
C:\PROGRAM FILES (X86)\MICROSOFT VISUAL STUDIO 10.0\VC\LIB\AMD64\LIBCPMT.LIB
C:\PROGRAM FILES (X86)\MICROSOFT VISUAL STUDIO 10.0\VC\LIB\AMD64\LIBCMT.LIB
C:\PROGRAM FILES (X86)\MICROSOFT VISUAL STUDIO 10.0\VC\LIB\AMD64\OLDNAMES.LIB
C:\WINDOWS\SYSTEM32\TZRES.DLL
C:\PROGRAM FILES (X86)\MICROSOFT VISUAL STUDIO 10.0\VC\BIN\X86_AMD64\1033\LINKUI.DLL
D:\DEV\ANN_1.1.2\MS_WIN32\DLL\RELEASE\ANN.EXP
